…
Ahora veremos que palabras cambian rápidamente en el periodo de los tweets. O para decirlo de otra manera, ¿Que palabras se usan más o menos a lo largo del día? Para realizar esto, tenemos que definir contenedores de un periodo de tiempo y contar el número de palabras usadas dentro de esos contenedores y solo se usaran palabras que sean usadas un mínimo de 30 veces.

    ## # A tibble: 337 x 5
    ##    time_floor          word        count time_total word_total
    ##    <dttm>              <chr>       <int>      <int>      <int>
    ##  1 2019-06-06 00:00:00 #bbva           1        526         62
    ##  2 2019-06-06 00:00:00 app             2        526         54
    ##  3 2019-06-06 00:00:00 banco           4        526         90
    ##  4 2019-06-06 00:00:00 bancomer       31        526        973
    ##  5 2019-06-06 00:00:00 bbva           31        526        801
    ##  6 2019-06-06 00:00:00 clientes        9        526         59
    ##  7 2019-06-06 00:00:00 confirmamos     3        526         31
    ##  8 2019-06-06 00:00:00 cuauhtémoc      5        526         43
    ##  9 2019-06-06 00:00:00 datos           5        526         54
    ## 10 2019-06-06 00:00:00 estadio         5        526         72
    ## # ... with 327 more rows

La columna count nos indica las veces que se usó esa palabra en el contenedor de una hora, time\_total nos dice cuantas palabras se usaron en ese periodo de tiempo y word\_total indica cuantas veces se usó esa palabra en tod el periodo.

Tenemos que realizar un modelo general lineal para cada palabra. Estos modelos responden la pregunta ¿Fue esta palabra mencionada en algún contenedor? ¿Si o No? ¿Como el número de menciones de una palabra depende con el tiempo? Para realizar esto, para cada palabra se adjuntan los datos de cada contenedor y se adjunta el modelo generado.

    ## # A tibble: 39 x 3
    ##    word        data              models   
    ##    <chr>       <list>            <list>   
    ##  1 #bbva       <tibble [9 x 4]>  <S3: glm>
    ##  2 app         <tibble [10 x 4]> <S3: glm>
    ##  3 banco       <tibble [11 x 4]> <S3: glm>
    ##  4 bancomer    <tibble [11 x 4]> <S3: glm>
    ##  5 bbva        <tibble [10 x 4]> <S3: glm>
    ##  6 clientes    <tibble [10 x 4]> <S3: glm>
    ##  7 confirmamos <tibble [9 x 4]>  <S3: glm>
    ##  8 cuauhtémoc  <tibble [10 x 4]> <S3: glm>
    ##  9 datos       <tibble [10 x 4]> <S3: glm>
    ## 10 estadio     <tibble [10 x 4]> <S3: glm>
    ## # ... with 29 more rows
…
